{
  "_fv": 28,
  "_type": "tag",
  "definition": {
    "type": "Items",
    "items": [
      {
        "value": "CUSTOM:EChickenEnderPearl"
      }
    ],
    "blocks": [],
    "functions": [],
    "entities": [],
    "name": "roost/c_enderpearl",
    "namespace": "forge"
  }
}