{
  "_fv": 28,
  "_type": "gui",
  "definition": {
    "type": 1,
    "width": 176,
    "height": 166,
    "inventoryOffsetX": 0,
    "inventoryOffsetY": 0,
    "renderBgLayer": true,
    "doesPauseGame": false,
    "components": [
      {
        "type": "inputslot",
        "data": {
          "inputLimit": {
            "value": "Items.MILK_BUCKET"
          },
          "id": 0,
          "disableStackInteraction": false,
          "dropItemsWhenNotBound": true,
          "name": "Slot #0",
          "x": 148,
          "y": 55
        }
      },
      {
        "type": "outputslot",
        "data": {
          "id": 1,
          "disableStackInteraction": false,
          "dropItemsWhenNotBound": true,
          "name": "Slot #1",
          "x": 179,
          "y": 55
        }
      },
      {
        "type": "button",
        "data": {
          "text": "makecheese",
          "onClick": {
            "name": "Addcheesenumber"
          },
          "width": 77,
          "height": 20,
          "name": "makecheese",
          "x": 179,
          "y": 86
        }
      },
      {
        "type": "outputslot",
        "data": {
          "id": 2,
          "disableStackInteraction": false,
          "dropItemsWhenNotBound": true,
          "name": "Slot #2",
          "x": 206,
          "y": 56
        }
      },
      {
        "type": "label",
        "data": {
          "text": "<BNBT:text:milkprotext>",
          "color": {
            "value": -12829636,
            "falpha": 0.0
          },
          "name": "<BNBT:text:milkprotext>",
          "x": 232,
          "y": 56
        }
      }
    ],
    "gridSettings": {
      "sx": 18,
      "sy": 18,
      "ox": 11,
      "oy": 15,
      "snapOnGrid": false
    }
  }
}