{
  "_fv": 28,
  "_type": "procedure",
  "definition": {
    "procedurexml": "<xml xmlns=\"https://developers.google.com/blockly/xml\"><variables><variable type=\"Entity\" id=\"targetchicken\">targetchicken</variable><variable type=\"MCItem\" id=\"chickenitem\">chickenitem</variable><variable type=\"MCItem\" id=\"thevanilla\">thevanilla</variable></variables><block type=\"event_trigger\" deletable=\"false\" x=\"-1017\" y=\"124\"><field name=\"trigger\">player_right_click_entity</field><next><block type=\"variables_set_entity\"><mutation xmlns=\"http://www.w3.org/1999/xhtml\" is_player_var=\"false\" has_entity=\"false\"></mutation><field name=\"VAR\">local:targetchicken</field><value name=\"VAL\"><block type=\"entity_from_deps\"></block></value><next><block type=\"variables_set_itemstack\"><mutation xmlns=\"http://www.w3.org/1999/xhtml\" is_player_var=\"false\" has_entity=\"false\"></mutation><field name=\"VAR\">local:chickenitem</field><value name=\"VAL\"><block type=\"item_random_from_tag\"><value name=\"tag\"><block type=\"entity_nbt_text_get\"><value name=\"entity\"><block type=\"variables_get_entity\"><mutation xmlns=\"http://www.w3.org/1999/xhtml\" is_player_var=\"false\" has_entity=\"false\"></mutation><field name=\"VAR\">local:targetchicken</field></block></value><value name=\"tagName\"><block type=\"text\"><field name=\"TEXT\">convert_entity_to_item_tag</field></block></value></block></value></block></value><next><block type=\"variables_set_itemstack\"><mutation xmlns=\"http://www.w3.org/1999/xhtml\" is_player_var=\"false\" has_entity=\"false\"></mutation><field name=\"VAR\">local:thevanilla</field><value name=\"VAL\"><block type=\"mcitem_all\"><field name=\"value\">CUSTOM:Chickenchicken</field></block></value><next><block type=\"controls_if\"><value name=\"IF0\"><block type=\"compare_mcitems\"><value name=\"a\"><block type=\"entity_iteminhand\"><value name=\"entity\"><block type=\"source_entity_from_deps\"></block></value></block></value><value name=\"b\"><block type=\"mcitem_all\"><field name=\"value\">CUSTOM:ChickenStick</field></block></value></block></value><statement name=\"DO0\"><block type=\"item_nbt_num_set\"><value name=\"tagName\"><block type=\"text\"><field name=\"TEXT\">roost_lvl</field></block></value><value name=\"item\"><block type=\"variables_get_itemstack\"><mutation xmlns=\"http://www.w3.org/1999/xhtml\" is_player_var=\"false\" has_entity=\"false\"></mutation><field name=\"VAR\">local:chickenitem</field></block></value><value name=\"tagValue\"><block type=\"entity_nbt_num_get\"><value name=\"entity\"><block type=\"variables_get_entity\"><mutation xmlns=\"http://www.w3.org/1999/xhtml\" is_player_var=\"false\" has_entity=\"false\"></mutation><field name=\"VAR\">local:targetchicken</field></block></value><value name=\"tagName\"><block type=\"text\"><field name=\"TEXT\">roost_lvl</field></block></value></block></value><next><block type=\"item_nbt_num_set\"><value name=\"tagName\"><block type=\"text\"><field name=\"TEXT\">roost_lvl</field></block></value><value name=\"item\"><block type=\"variables_get_itemstack\"><mutation xmlns=\"http://www.w3.org/1999/xhtml\" is_player_var=\"false\" has_entity=\"false\"></mutation><field name=\"VAR\">local:thevanilla</field></block></value><value name=\"tagValue\"><block type=\"entity_nbt_num_get\"><value name=\"entity\"><block type=\"variables_get_entity\"><mutation xmlns=\"http://www.w3.org/1999/xhtml\" is_player_var=\"false\" has_entity=\"false\"></mutation><field name=\"VAR\">local:targetchicken</field></block></value><value name=\"tagName\"><block type=\"text\"><field name=\"TEXT\">roost_lvl</field></block></value></block></value><next><block type=\"item_nbt_num_set\"><value name=\"tagName\"><block type=\"text\"><field name=\"TEXT\">roost_xp</field></block></value><value name=\"item\"><block type=\"variables_get_itemstack\"><mutation xmlns=\"http://www.w3.org/1999/xhtml\" is_player_var=\"false\" has_entity=\"false\"></mutation><field name=\"VAR\">local:chickenitem</field></block></value><value name=\"tagValue\"><block type=\"entity_nbt_num_get\"><value name=\"entity\"><block type=\"variables_get_entity\"><mutation xmlns=\"http://www.w3.org/1999/xhtml\" is_player_var=\"false\" has_entity=\"false\"></mutation><field name=\"VAR\">local:targetchicken</field></block></value><value name=\"tagName\"><block type=\"text\"><field name=\"TEXT\">roost_xp</field></block></value></block></value><next><block type=\"item_nbt_num_set\"><value name=\"tagName\"><block type=\"text\"><field name=\"TEXT\">roost_xp</field></block></value><value name=\"item\"><block type=\"variables_get_itemstack\"><mutation xmlns=\"http://www.w3.org/1999/xhtml\" is_player_var=\"false\" has_entity=\"false\"></mutation><field name=\"VAR\">local:thevanilla</field></block></value><value name=\"tagValue\"><block type=\"entity_nbt_num_get\"><value name=\"entity\"><block type=\"variables_get_entity\"><mutation xmlns=\"http://www.w3.org/1999/xhtml\" is_player_var=\"false\" has_entity=\"false\"></mutation><field name=\"VAR\">local:targetchicken</field></block></value><value name=\"tagName\"><block type=\"text\"><field name=\"TEXT\">roost_xp</field></block></value></block></value><next><block type=\"controls_if\"><value name=\"IF0\"><block type=\"entity_is_tagged_in\"><value name=\"entity\"><block type=\"variables_get_entity\"><mutation xmlns=\"http://www.w3.org/1999/xhtml\" is_player_var=\"false\" has_entity=\"false\"></mutation><field name=\"VAR\">local:targetchicken</field></block></value><value name=\"tag\"><block type=\"text\"><field name=\"TEXT\">forge:roost/livingchicken</field></block></value></block></value><statement name=\"DO0\"><block type=\"spawn_particle_multi\"><field name=\"particle\">POOF</field><value name=\"count\"><block type=\"math_number\"><field name=\"NUM\">50</field></block></value><value name=\"x\"><block type=\"coord_x\"></block></value><value name=\"y\"><block type=\"coord_y\"></block></value><value name=\"z\"><block type=\"coord_z\"></block></value><value name=\"dx\"><block type=\"math_number\"><field name=\"NUM\">1</field></block></value><value name=\"dy\"><block type=\"math_number\"><field name=\"NUM\">1</field></block></value><value name=\"dz\"><block type=\"math_number\"><field name=\"NUM\">1</field></block></value><value name=\"speed\"><block type=\"math_number\"><field name=\"NUM\">1</field></block></value><next><block type=\"item_damage\"><value name=\"amount\"><block type=\"math_number\"><field name=\"NUM\">1</field></block></value><value name=\"item\"><block type=\"entity_iteminhand\"><value name=\"entity\"><block type=\"source_entity_from_deps\"></block></value></block></value><next><block type=\"spawn_gem\"><field name=\"despawn\">FALSE</field><value name=\"block\"><block type=\"variables_get_itemstack\"><mutation xmlns=\"http://www.w3.org/1999/xhtml\" is_player_var=\"false\" has_entity=\"false\"></mutation><field name=\"VAR\">local:chickenitem</field></block></value><value name=\"x\"><block type=\"entity_pos_x\"><value name=\"entity\"><block type=\"variables_get_entity\"><mutation xmlns=\"http://www.w3.org/1999/xhtml\" is_player_var=\"false\" has_entity=\"false\"></mutation><field name=\"VAR\">local:targetchicken</field></block></value></block></value><value name=\"y\"><block type=\"entity_pos_y\"><value name=\"entity\"><block type=\"variables_get_entity\"><mutation xmlns=\"http://www.w3.org/1999/xhtml\" is_player_var=\"false\" has_entity=\"false\"></mutation><field name=\"VAR\">local:targetchicken</field></block></value></block></value><value name=\"z\"><block type=\"entity_pos_z\"><value name=\"entity\"><block type=\"variables_get_entity\"><mutation xmlns=\"http://www.w3.org/1999/xhtml\" is_player_var=\"false\" has_entity=\"false\"></mutation><field name=\"VAR\">local:targetchicken</field></block></value></block></value><value name=\"pickUpDelay\"><block type=\"math_number\"><field name=\"NUM\">10</field></block></value><next><block type=\"entity_despawn\"><value name=\"entity\"><block type=\"variables_get_entity\"><mutation xmlns=\"http://www.w3.org/1999/xhtml\" is_player_var=\"false\" has_entity=\"false\"></mutation><field name=\"VAR\">local:targetchicken</field></block></value></block></next></block></next></block></next></block></statement><next><block type=\"controls_if\"><value name=\"IF0\"><block type=\"entity_is_tagged_in\"><value name=\"entity\"><block type=\"variables_get_entity\"><mutation xmlns=\"http://www.w3.org/1999/xhtml\" is_player_var=\"false\" has_entity=\"false\"></mutation><field name=\"VAR\">local:targetchicken</field></block></value><value name=\"tag\"><block type=\"text\"><field name=\"TEXT\">forge:vanillachicken</field></block></value></block></value><statement name=\"DO0\"><block type=\"spawn_particle_multi\"><field name=\"particle\">POOF</field><value name=\"count\"><block type=\"math_number\"><field name=\"NUM\">50</field></block></value><value name=\"x\"><block type=\"coord_x\"></block></value><value name=\"y\"><block type=\"coord_y\"></block></value><value name=\"z\"><block type=\"coord_z\"></block></value><value name=\"dx\"><block type=\"math_number\"><field name=\"NUM\">1</field></block></value><value name=\"dy\"><block type=\"math_number\"><field name=\"NUM\">1</field></block></value><value name=\"dz\"><block type=\"math_number\"><field name=\"NUM\">1</field></block></value><value name=\"speed\"><block type=\"math_number\"><field name=\"NUM\">1</field></block></value><next><block type=\"item_damage\"><value name=\"amount\"><block type=\"math_number\"><field name=\"NUM\">1</field></block></value><value name=\"item\"><block type=\"entity_iteminhand\"><value name=\"entity\"><block type=\"source_entity_from_deps\"></block></value></block></value><next><block type=\"spawn_gem\"><field name=\"despawn\">FALSE</field><value name=\"block\"><block type=\"variables_get_itemstack\"><mutation xmlns=\"http://www.w3.org/1999/xhtml\" is_player_var=\"false\" has_entity=\"false\"></mutation><field name=\"VAR\">local:thevanilla</field></block></value><value name=\"x\"><block type=\"entity_pos_x\"><value name=\"entity\"><block type=\"variables_get_entity\"><mutation xmlns=\"http://www.w3.org/1999/xhtml\" is_player_var=\"false\" has_entity=\"false\"></mutation><field name=\"VAR\">local:targetchicken</field></block></value></block></value><value name=\"y\"><block type=\"entity_pos_y\"><value name=\"entity\"><block type=\"variables_get_entity\"><mutation xmlns=\"http://www.w3.org/1999/xhtml\" is_player_var=\"false\" has_entity=\"false\"></mutation><field name=\"VAR\">local:targetchicken</field></block></value></block></value><value name=\"z\"><block type=\"entity_pos_z\"><value name=\"entity\"><block type=\"variables_get_entity\"><mutation xmlns=\"http://www.w3.org/1999/xhtml\" is_player_var=\"false\" has_entity=\"false\"></mutation><field name=\"VAR\">local:targetchicken</field></block></value></block></value><value name=\"pickUpDelay\"><block type=\"math_number\"><field name=\"NUM\">10</field></block></value><next><block type=\"entity_despawn\"><value name=\"entity\"><block type=\"variables_get_entity\"><mutation xmlns=\"http://www.w3.org/1999/xhtml\" is_player_var=\"false\" has_entity=\"false\"></mutation><field name=\"VAR\">local:targetchicken</field></block></value></block></next></block></next></block></next></block></statement></block></next></block></next></block></next></block></next></block></next></block></statement></block></next></block></next></block></next></block></next></block></xml>"
  }
}