{
  "_fv": 28,
  "_type": "recipe",
  "definition": {
    "recipeType": "Crafting",
    "xpReward": 0.0,
    "cookingTime": 200,
    "recipeRetstackSize": 1,
    "group": "",
    "recipeShapeless": true,
    "recipeSlots": [
      {
        "value": ""
      },
      {
        "value": "Items.DIAMOND"
      },
      {
        "value": ""
      },
      {
        "value": "Items.COPPER_INGOT"
      },
      {
        "value": "Items.SPYGLASS"
      },
      {
        "value": "Items.COPPER_INGOT"
      },
      {
        "value": "Items.REDSTONE"
      },
      {
        "value": "Items.REDSTONE"
      },
      {
        "value": "Items.REDSTONE"
      }
    ],
    "recipeReturnStack": {
      "value": "CUSTOM:ChickenScanner"
    },
    "name": "chicken_scanner_recipe",
    "namespace": "mod"
  }
}