{
  "_fv": 28,
  "_type": "procedure",
  "definition": {
    "procedurexml": "<xml xmlns=\"https://developers.google.com/blockly/xml\"><variables><variable type=\"File\" id=\"modconfig\">modconfig</variable><variable type=\"String\" id=\"producerate_cob\">producerate_cob</variable><variable type=\"JsonObject\" id=\"roost_speed_tick\">roost_speed_tick</variable></variables><block type=\"event_trigger\" deletable=\"false\" x=\"-254\" y=\"-410\"><field name=\"trigger\">mod_clientload</field><next><block type=\"variables_set_file\"><mutation xmlns=\"http://www.w3.org/1999/xhtml\" is_player_var=\"false\" has_entity=\"false\"></mutation><field name=\"VAR\">local:modconfig</field><value name=\"VAL\"><block type=\"file_variable\"><mutation xmlns=\"http://www.w3.org/1999/xhtml\" is_player_var=\"false\" has_entity=\"false\"></mutation><field name=\"VAR\">local:modconfig</field><value name=\"name\"><block type=\"text\"><field name=\"TEXT\">Chickenroost_v0.2.3.json</field></block></value><value name=\"location\"><block type=\"text_join\"><mutation items=\"2\"></mutation><value name=\"ADD0\"><block type=\"get_game_directory\"></block></value><value name=\"ADD1\"><block type=\"text\"><field name=\"TEXT\">/config/</field></block></value></block></value></block></value><next><block type=\"controls_if\"><mutation else=\"1\"></mutation><value name=\"IF0\"><block type=\"logic_negate\"><value name=\"BOOL\"><block type=\"file_exists\"><mutation xmlns=\"http://www.w3.org/1999/xhtml\" is_player_var=\"false\" has_entity=\"false\"></mutation><field name=\"VAR\">local:modconfig</field></block></value></block></value><statement name=\"DO0\"><block type=\"create_file\"><mutation xmlns=\"http://www.w3.org/1999/xhtml\" is_player_var=\"false\" has_entity=\"false\"></mutation><field name=\"VAR\">local:modconfig</field><next><block type=\"add_json_property\"><field name=\"JOBJVAR\">local:roost_speed_tick</field><value name=\"name\"><block type=\"text\"><field name=\"TEXT\">info_tick</field></block></value><value name=\"value\"><block type=\"text\"><field name=\"TEXT\">Timer use TICK so 20 Ticks equal 1 Second</field></block></value><next><block type=\"add_json_property\"><field name=\"JOBJVAR\">local:roost_speed_tick</field><value name=\"name\"><block type=\"text\"><field name=\"TEXT\">roost_speed_tick</field></block></value><value name=\"value\"><block type=\"math_number\"><field name=\"NUM\">200</field></block></value><next><block type=\"add_json_property\"><field name=\"JOBJVAR\">local:roost_speed_tick</field><value name=\"name\"><block type=\"text\"><field name=\"TEXT\">breed_speed_tick</field></block></value><value name=\"value\"><block type=\"math_number\"><field name=\"NUM\">600</field></block></value><next><block type=\"add_json_property\"><field name=\"JOBJVAR\">local:roost_speed_tick</field><value name=\"name\"><block type=\"text\"><field name=\"TEXT\">training_speed_tick</field></block></value><value name=\"value\"><block type=\"math_number\"><field name=\"NUM\">200</field></block></value><next><block type=\"add_json_property\"><field name=\"JOBJVAR\">local:roost_speed_tick</field><value name=\"name\"><block type=\"text\"><field name=\"TEXT\">info_trainingxp</field></block></value><value name=\"value\"><block type=\"text\"><field name=\"TEXT\">Set needed XP Amount for Level Tiered Chickens</field></block></value><next><block type=\"add_json_property\"><field name=\"JOBJVAR\">local:roost_speed_tick</field><value name=\"name\"><block type=\"text\"><field name=\"TEXT\">trainingxp_perfood</field></block></value><value name=\"value\"><block type=\"math_number\"><field name=\"NUM\">20</field></block></value><next><block type=\"add_json_property\"><field name=\"JOBJVAR\">local:roost_speed_tick</field><value name=\"name\"><block type=\"text\"><field name=\"TEXT\">xp_tier_1</field></block></value><value name=\"value\"><block type=\"math_number\"><field name=\"NUM\">500</field></block></value><next><block type=\"add_json_property\"><field name=\"JOBJVAR\">local:roost_speed_tick</field><value name=\"name\"><block type=\"text\"><field name=\"TEXT\">xp_tier_2</field></block></value><value name=\"value\"><block type=\"math_number\"><field name=\"NUM\">2500</field></block></value><next><block type=\"add_json_property\"><field name=\"JOBJVAR\">local:roost_speed_tick</field><value name=\"name\"><block type=\"text\"><field name=\"TEXT\">xp_tier_3</field></block></value><value name=\"value\"><block type=\"math_number\"><field name=\"NUM\">12500</field></block></value><next><block type=\"add_json_property\"><field name=\"JOBJVAR\">local:roost_speed_tick</field><value name=\"name\"><block type=\"text\"><field name=\"TEXT\">xp_tier_4</field></block></value><value name=\"value\"><block type=\"math_number\"><field name=\"NUM\">62500</field></block></value><next><block type=\"add_json_property\"><field name=\"JOBJVAR\">local:roost_speed_tick</field><value name=\"name\"><block type=\"text\"><field name=\"TEXT\">xp_tier_5</field></block></value><value name=\"value\"><block type=\"math_number\"><field name=\"NUM\">125000</field></block></value><next><block type=\"add_json_property\"><field name=\"JOBJVAR\">local:roost_speed_tick</field><value name=\"name\"><block type=\"text\"><field name=\"TEXT\">xp_tier_6</field></block></value><value name=\"value\"><block type=\"math_number\"><field name=\"NUM\">250000</field></block></value><next><block type=\"add_json_property\"><field name=\"JOBJVAR\">local:roost_speed_tick</field><value name=\"name\"><block type=\"text\"><field name=\"TEXT\">xp_tier_7</field></block></value><value name=\"value\"><block type=\"math_number\"><field name=\"NUM\">325000</field></block></value><next><block type=\"add_json_property\"><field name=\"JOBJVAR\">local:roost_speed_tick</field><value name=\"name\"><block type=\"text\"><field name=\"TEXT\">xp_tier_8</field></block></value><value name=\"value\"><block type=\"math_number\"><field name=\"NUM\">400000</field></block></value><next><block type=\"add_json_property\"><field name=\"JOBJVAR\">local:roost_speed_tick</field><value name=\"name\"><block type=\"text\"><field name=\"TEXT\">xp_tier_9</field></block></value><value name=\"value\"><block type=\"math_number\"><field name=\"NUM\">500000</field></block></value><next><block type=\"add_json_property\"><field name=\"JOBJVAR\">local:roost_speed_tick</field><value name=\"name\"><block type=\"text\"><field name=\"TEXT\">info_training_maxlevel</field></block></value><value name=\"value\"><block type=\"text\"><field name=\"TEXT\">Set Maxlevel for each Tier</field></block></value><next><block type=\"add_json_property\"><field name=\"JOBJVAR\">local:roost_speed_tick</field><value name=\"name\"><block type=\"text\"><field name=\"TEXT\">maxlevel_tier_1</field></block></value><value name=\"value\"><block type=\"math_number\"><field name=\"NUM\">60</field></block></value><next><block type=\"add_json_property\"><field name=\"JOBJVAR\">local:roost_speed_tick</field><value name=\"name\"><block type=\"text\"><field name=\"TEXT\">maxlevel_tier_2</field></block></value><value name=\"value\"><block type=\"math_number\"><field name=\"NUM\">60</field></block></value><next><block type=\"add_json_property\"><field name=\"JOBJVAR\">local:roost_speed_tick</field><value name=\"name\"><block type=\"text\"><field name=\"TEXT\">maxlevel_tier_3</field></block></value><value name=\"value\"><block type=\"math_number\"><field name=\"NUM\">60</field></block></value><next><block type=\"add_json_property\"><field name=\"JOBJVAR\">local:roost_speed_tick</field><value name=\"name\"><block type=\"text\"><field name=\"TEXT\">maxlevel_tier_4</field></block></value><value name=\"value\"><block type=\"math_number\"><field name=\"NUM\">60</field></block></value><next><block type=\"add_json_property\"><field name=\"JOBJVAR\">local:roost_speed_tick</field><value name=\"name\"><block type=\"text\"><field name=\"TEXT\">maxlevel_tier_5</field></block></value><value name=\"value\"><block type=\"math_number\"><field name=\"NUM\">60</field></block></value><next><block type=\"add_json_property\"><field name=\"JOBJVAR\">local:roost_speed_tick</field><value name=\"name\"><block type=\"text\"><field name=\"TEXT\">maxlevel_tier_6</field></block></value><value name=\"value\"><block type=\"math_number\"><field name=\"NUM\">60</field></block></value><next><block type=\"add_json_property\"><field name=\"JOBJVAR\">local:roost_speed_tick</field><value name=\"name\"><block type=\"text\"><field name=\"TEXT\">maxlevel_tier_7</field></block></value><value name=\"value\"><block type=\"math_number\"><field name=\"NUM\">60</field></block></value><next><block type=\"add_json_property\"><field name=\"JOBJVAR\">local:roost_speed_tick</field><value name=\"name\"><block type=\"text\"><field name=\"TEXT\">maxlevel_tier_8</field></block></value><value name=\"value\"><block type=\"math_number\"><field name=\"NUM\">60</field></block></value><next><block type=\"add_json_property\"><field name=\"JOBJVAR\">local:roost_speed_tick</field><value name=\"name\"><block type=\"text\"><field name=\"TEXT\">maxlevel_tier_9</field></block></value><value name=\"value\"><block type=\"math_number\"><field name=\"NUM\">60</field></block></value><next><block type=\"write_json\"><mutation xmlns=\"http://www.w3.org/1999/xhtml\" is_player_var=\"false\" has_entity=\"false\"></mutation><field name=\"JOBJVAR\">local:roost_speed_tick</field><field name=\"VAR\">local:modconfig</field></block></next></block></next></block></next></block></next></block></next></block></next></block></next></block></next></block></next></block></next></block></next></block></next></block></next></block></next></block></next></block></next></block></next></block></next></block></next></block></next></block></next></block></next></block></next></block></next></block></next></block></next></block></statement><statement name=\"ELSE\"><block type=\"controls_if\"><value name=\"IF0\"><block type=\"file_exists\"><mutation xmlns=\"http://www.w3.org/1999/xhtml\" is_player_var=\"false\" has_entity=\"false\"></mutation><field name=\"VAR\">local:modconfig</field></block></value><statement name=\"DO0\"><block type=\"read_json\"><mutation xmlns=\"http://www.w3.org/1999/xhtml\" is_player_var=\"false\" has_entity=\"false\"></mutation><field name=\"VAR\">local:modconfig</field><field name=\"JOBJVAR\">local:roost_speed_tick</field><statement name=\"values\"><block type=\"variables_set_number\"><mutation xmlns=\"http://www.w3.org/1999/xhtml\" is_player_var=\"false\" has_entity=\"false\"></mutation><field name=\"VAR\">global:roost_speed_tick</field><value name=\"VAL\"><block type=\"get_json_number\"><mutation xmlns=\"http://www.w3.org/1999/xhtml\" is_player_var=\"false\" has_entity=\"false\"></mutation><field name=\"VAR\">local:roost_speed_tick</field><value name=\"name\"><block type=\"text\"><field name=\"TEXT\">roost_speed_tick</field></block></value></block></value><next><block type=\"variables_set_number\"><mutation xmlns=\"http://www.w3.org/1999/xhtml\" is_player_var=\"false\" has_entity=\"false\"></mutation><field name=\"VAR\">global:breed_speed_tick</field><value name=\"VAL\"><block type=\"get_json_number\"><mutation xmlns=\"http://www.w3.org/1999/xhtml\" is_player_var=\"false\" has_entity=\"false\"></mutation><field name=\"VAR\">local:roost_speed_tick</field><value name=\"name\"><block type=\"text\"><field name=\"TEXT\">breed_speed_tick</field></block></value></block></value><next><block type=\"variables_set_number\"><mutation xmlns=\"http://www.w3.org/1999/xhtml\" is_player_var=\"false\" has_entity=\"false\"></mutation><field name=\"VAR\">global:training_speed_tick</field><value name=\"VAL\"><block type=\"get_json_number\"><mutation xmlns=\"http://www.w3.org/1999/xhtml\" is_player_var=\"false\" has_entity=\"false\"></mutation><field name=\"VAR\">local:roost_speed_tick</field><value name=\"name\"><block type=\"text\"><field name=\"TEXT\">training_speed_tick</field></block></value></block></value><next><block type=\"variables_set_number\"><mutation xmlns=\"http://www.w3.org/1999/xhtml\" is_player_var=\"false\" has_entity=\"false\"></mutation><field name=\"VAR\">global:trainingxp_perfood</field><value name=\"VAL\"><block type=\"get_json_number\"><mutation xmlns=\"http://www.w3.org/1999/xhtml\" is_player_var=\"false\" has_entity=\"false\"></mutation><field name=\"VAR\">local:roost_speed_tick</field><value name=\"name\"><block type=\"text\"><field name=\"TEXT\">trainingxp_perfood</field></block></value></block></value><next><block type=\"variables_set_number\"><mutation xmlns=\"http://www.w3.org/1999/xhtml\" is_player_var=\"false\" has_entity=\"false\"></mutation><field name=\"VAR\">global:xp_tier_1</field><value name=\"VAL\"><block type=\"get_json_number\"><mutation xmlns=\"http://www.w3.org/1999/xhtml\" is_player_var=\"false\" has_entity=\"false\"></mutation><field name=\"VAR\">local:roost_speed_tick</field><value name=\"name\"><block type=\"text\"><field name=\"TEXT\">xp_tier_1</field></block></value></block></value><next><block type=\"variables_set_number\"><mutation xmlns=\"http://www.w3.org/1999/xhtml\" is_player_var=\"false\" has_entity=\"false\"></mutation><field name=\"VAR\">global:xp_tier_2</field><value name=\"VAL\"><block type=\"get_json_number\"><mutation xmlns=\"http://www.w3.org/1999/xhtml\" is_player_var=\"false\" has_entity=\"false\"></mutation><field name=\"VAR\">local:roost_speed_tick</field><value name=\"name\"><block type=\"text\"><field name=\"TEXT\">xp_tier_2</field></block></value></block></value><next><block type=\"variables_set_number\"><mutation xmlns=\"http://www.w3.org/1999/xhtml\" is_player_var=\"false\" has_entity=\"false\"></mutation><field name=\"VAR\">global:xp_tier_3</field><value name=\"VAL\"><block type=\"get_json_number\"><mutation xmlns=\"http://www.w3.org/1999/xhtml\" is_player_var=\"false\" has_entity=\"false\"></mutation><field name=\"VAR\">local:roost_speed_tick</field><value name=\"name\"><block type=\"text\"><field name=\"TEXT\">xp_tier_3</field></block></value></block></value><next><block type=\"variables_set_number\"><mutation xmlns=\"http://www.w3.org/1999/xhtml\" is_player_var=\"false\" has_entity=\"false\"></mutation><field name=\"VAR\">global:xp_tier_4</field><value name=\"VAL\"><block type=\"get_json_number\"><mutation xmlns=\"http://www.w3.org/1999/xhtml\" is_player_var=\"false\" has_entity=\"false\"></mutation><field name=\"VAR\">local:roost_speed_tick</field><value name=\"name\"><block type=\"text\"><field name=\"TEXT\">xp_tier_4</field></block></value></block></value><next><block type=\"variables_set_number\"><mutation xmlns=\"http://www.w3.org/1999/xhtml\" is_player_var=\"false\" has_entity=\"false\"></mutation><field name=\"VAR\">global:xp_tier_5</field><value name=\"VAL\"><block type=\"get_json_number\"><mutation xmlns=\"http://www.w3.org/1999/xhtml\" is_player_var=\"false\" has_entity=\"false\"></mutation><field name=\"VAR\">local:roost_speed_tick</field><value name=\"name\"><block type=\"text\"><field name=\"TEXT\">xp_tier_5</field></block></value></block></value><next><block type=\"variables_set_number\"><mutation xmlns=\"http://www.w3.org/1999/xhtml\" is_player_var=\"false\" has_entity=\"false\"></mutation><field name=\"VAR\">global:xp_tier_6</field><value name=\"VAL\"><block type=\"get_json_number\"><mutation xmlns=\"http://www.w3.org/1999/xhtml\" is_player_var=\"false\" has_entity=\"false\"></mutation><field name=\"VAR\">local:roost_speed_tick</field><value name=\"name\"><block type=\"text\"><field name=\"TEXT\">xp_tier_6</field></block></value></block></value><next><block type=\"variables_set_number\"><mutation xmlns=\"http://www.w3.org/1999/xhtml\" is_player_var=\"false\" has_entity=\"false\"></mutation><field name=\"VAR\">global:xp_tier_7</field><value name=\"VAL\"><block type=\"get_json_number\"><mutation xmlns=\"http://www.w3.org/1999/xhtml\" is_player_var=\"false\" has_entity=\"false\"></mutation><field name=\"VAR\">local:roost_speed_tick</field><value name=\"name\"><block type=\"text\"><field name=\"TEXT\">xp_tier_7</field></block></value></block></value><next><block type=\"variables_set_number\"><mutation xmlns=\"http://www.w3.org/1999/xhtml\" is_player_var=\"false\" has_entity=\"false\"></mutation><field name=\"VAR\">global:xp_tier_8</field><value name=\"VAL\"><block type=\"get_json_number\"><mutation xmlns=\"http://www.w3.org/1999/xhtml\" is_player_var=\"false\" has_entity=\"false\"></mutation><field name=\"VAR\">local:roost_speed_tick</field><value name=\"name\"><block type=\"text\"><field name=\"TEXT\">xp_tier_8</field></block></value></block></value><next><block type=\"variables_set_number\"><mutation xmlns=\"http://www.w3.org/1999/xhtml\" is_player_var=\"false\" has_entity=\"false\"></mutation><field name=\"VAR\">global:xp_tier_9</field><value name=\"VAL\"><block type=\"get_json_number\"><mutation xmlns=\"http://www.w3.org/1999/xhtml\" is_player_var=\"false\" has_entity=\"false\"></mutation><field name=\"VAR\">local:roost_speed_tick</field><value name=\"name\"><block type=\"text\"><field name=\"TEXT\">xp_tier_9</field></block></value></block></value><next><block type=\"variables_set_number\"><mutation xmlns=\"http://www.w3.org/1999/xhtml\" is_player_var=\"false\" has_entity=\"false\"></mutation><field name=\"VAR\">global:maxlevel_tier_1</field><value name=\"VAL\"><block type=\"get_json_number\"><mutation xmlns=\"http://www.w3.org/1999/xhtml\" is_player_var=\"false\" has_entity=\"false\"></mutation><field name=\"VAR\">local:roost_speed_tick</field><value name=\"name\"><block type=\"text\"><field name=\"TEXT\">maxlevel_tier_1</field></block></value></block></value><next><block type=\"variables_set_number\"><mutation xmlns=\"http://www.w3.org/1999/xhtml\" is_player_var=\"false\" has_entity=\"false\"></mutation><field name=\"VAR\">global:maxlevel_tier_2</field><value name=\"VAL\"><block type=\"get_json_number\"><mutation xmlns=\"http://www.w3.org/1999/xhtml\" is_player_var=\"false\" has_entity=\"false\"></mutation><field name=\"VAR\">local:roost_speed_tick</field><value name=\"name\"><block type=\"text\"><field name=\"TEXT\">maxlevel_tier_2</field></block></value></block></value><next><block type=\"variables_set_number\"><mutation xmlns=\"http://www.w3.org/1999/xhtml\" is_player_var=\"false\" has_entity=\"false\"></mutation><field name=\"VAR\">global:maxlevel_tier_3</field><value name=\"VAL\"><block type=\"get_json_number\"><mutation xmlns=\"http://www.w3.org/1999/xhtml\" is_player_var=\"false\" has_entity=\"false\"></mutation><field name=\"VAR\">local:roost_speed_tick</field><value name=\"name\"><block type=\"text\"><field name=\"TEXT\">maxlevel_tier_3</field></block></value></block></value><next><block type=\"variables_set_number\"><mutation xmlns=\"http://www.w3.org/1999/xhtml\" is_player_var=\"false\" has_entity=\"false\"></mutation><field name=\"VAR\">global:maxlevel_tier_4</field><value name=\"VAL\"><block type=\"get_json_number\"><mutation xmlns=\"http://www.w3.org/1999/xhtml\" is_player_var=\"false\" has_entity=\"false\"></mutation><field name=\"VAR\">local:roost_speed_tick</field><value name=\"name\"><block type=\"text\"><field name=\"TEXT\">maxlevel_tier_4</field></block></value></block></value><next><block type=\"variables_set_number\"><mutation xmlns=\"http://www.w3.org/1999/xhtml\" is_player_var=\"false\" has_entity=\"false\"></mutation><field name=\"VAR\">global:maxlevel_tier_5</field><value name=\"VAL\"><block type=\"get_json_number\"><mutation xmlns=\"http://www.w3.org/1999/xhtml\" is_player_var=\"false\" has_entity=\"false\"></mutation><field name=\"VAR\">local:roost_speed_tick</field><value name=\"name\"><block type=\"text\"><field name=\"TEXT\">maxlevel_tier_5</field></block></value></block></value><next><block type=\"variables_set_number\"><mutation xmlns=\"http://www.w3.org/1999/xhtml\" is_player_var=\"false\" has_entity=\"false\"></mutation><field name=\"VAR\">global:maxlevel_tier_6</field><value name=\"VAL\"><block type=\"get_json_number\"><mutation xmlns=\"http://www.w3.org/1999/xhtml\" is_player_var=\"false\" has_entity=\"false\"></mutation><field name=\"VAR\">local:roost_speed_tick</field><value name=\"name\"><block type=\"text\"><field name=\"TEXT\">maxlevel_tier_6</field></block></value></block></value><next><block type=\"variables_set_number\"><mutation xmlns=\"http://www.w3.org/1999/xhtml\" is_player_var=\"false\" has_entity=\"false\"></mutation><field name=\"VAR\">global:maxlevel_tier_7</field><value name=\"VAL\"><block type=\"get_json_number\"><mutation xmlns=\"http://www.w3.org/1999/xhtml\" is_player_var=\"false\" has_entity=\"false\"></mutation><field name=\"VAR\">local:roost_speed_tick</field><value name=\"name\"><block type=\"text\"><field name=\"TEXT\">maxlevel_tier_7</field></block></value></block></value><next><block type=\"variables_set_number\"><mutation xmlns=\"http://www.w3.org/1999/xhtml\" is_player_var=\"false\" has_entity=\"false\"></mutation><field name=\"VAR\">global:maxlevel_tier_8</field><value name=\"VAL\"><block type=\"get_json_number\"><mutation xmlns=\"http://www.w3.org/1999/xhtml\" is_player_var=\"false\" has_entity=\"false\"></mutation><field name=\"VAR\">local:roost_speed_tick</field><value name=\"name\"><block type=\"text\"><field name=\"TEXT\">maxlevel_tier_8</field></block></value></block></value><next><block type=\"variables_set_number\"><mutation xmlns=\"http://www.w3.org/1999/xhtml\" is_player_var=\"false\" has_entity=\"false\"></mutation><field name=\"VAR\">global:maxlevel_tier_9</field><value name=\"VAL\"><block type=\"get_json_number\"><mutation xmlns=\"http://www.w3.org/1999/xhtml\" is_player_var=\"false\" has_entity=\"false\"></mutation><field name=\"VAR\">local:roost_speed_tick</field><value name=\"name\"><block type=\"text\"><field name=\"TEXT\">maxlevel_tier_9</field></block></value></block></value></block></next></block></next></block></next></block></next></block></next></block></next></block></next></block></next></block></next></block></next></block></next></block></next></block></next></block></next></block></next></block></next></block></next></block></next></block></next></block></next></block></next></block></statement></block></statement></block></statement></block></next></block></next></block><block type=\"text_join\" x=\"-454\" y=\"-305\"><mutation items=\"2\"></mutation></block><block type=\"write_txt\" x=\"-638\" y=\"-116\"><mutation xmlns=\"http://www.w3.org/1999/xhtml\" is_player_var=\"false\" has_entity=\"false\"></mutation><field name=\"VAR\">local:modconfig</field></block><block type=\"math_number\" x=\"573\" y=\"-167\"><field name=\"NUM\">600</field></block><block type=\"variables_get_jsonobject\" x=\"-254\" y=\"1363\"><mutation xmlns=\"http://www.w3.org/1999/xhtml\" is_player_var=\"false\" has_entity=\"false\"></mutation><field name=\"VAR\">local:roost_speed_tick</field></block></xml>"
  }
}