{
  "_fv": 28,
  "_type": "tag",
  "definition": {
    "type": "Entities",
    "items": [],
    "blocks": [],
    "functions": [],
    "entities": [
      {
        "value": "CUSTOM:AChickenMekanismLead"
      }
    ],
    "name": "getlivinglead",
    "namespace": "mod"
  }
}