{
  "_fv": 28,
  "_type": "tag",
  "definition": {
    "type": "Entities",
    "items": [],
    "blocks": [],
    "functions": [],
    "entities": [
      {
        "value": "CUSTOM:AChickenAcaciaWood"
      },
      {
        "value": "CUSTOM:AChickenAdamantium"
      },
      {
        "value": "CUSTOM:AChickenAECertusQuartz"
      },
      {
        "value": "CUSTOM:AChickenAEChargedCertus"
      },
      {
        "value": "CUSTOM:AChickenAEFluixCrystal"
      },
      {
        "value": "CUSTOM:AChickenAESilicon"
      },
      {
        "value": "CUSTOM:AChickenAllthemodium"
      },
      {
        "value": "CUSTOM:AChickenAluminium"
      },
      {
        "value": "CUSTOM:AChickenAmethystShard"
      },
      {
        "value": "CUSTOM:AChickenAndersite"
      },
      {
        "value": "CUSTOM:AChickenapple"
      },
      {
        "value": "CUSTOM:AChickenBasalt"
      },
      {
        "value": "CUSTOM:AChickenbeetroot"
      },
      {
        "value": "CUSTOM:AChickenBirchwood"
      },
      {
        "value": "CUSTOM:AChickenblazepowder"
      },
      {
        "value": "CUSTOM:AChickenBlazeRod"
      },
      {
        "value": "CUSTOM:AChickenBlutonium"
      },
      {
        "value": "CUSTOM:AChickenBone"
      },
      {
        "value": "CUSTOM:AChickenBoneMeal"
      },
      {
        "value": "CUSTOM:AChickenBotaniaElementium"
      },
      {
        "value": "CUSTOM:AChickenBotaniaLivingrock"
      },
      {
        "value": "CUSTOM:AChickenBotaniaLivingwood"
      },
      {
        "value": "CUSTOM:AChickenBotaniaManasteel"
      },
      {
        "value": "CUSTOM:AChickenBotaniaTerrasteel"
      },
      {
        "value": "CUSTOM:AChickenBrass"
      },
      {
        "value": "CUSTOM:AChickencarrot"
      },
      {
        "value": "CUSTOM:AChickenCharCoal"
      },
      {
        "value": "CUSTOM:AChickenChorusFruit"
      },
      {
        "value": "CUSTOM:AChickenChrome"
      },
      {
        "value": "CUSTOM:AChickenClay"
      },
      {
        "value": "CUSTOM:AChickenCoal"
      },
      {
        "value": "CUSTOM:AChickenCobble"
      },
      {
        "value": "CUSTOM:AChickenCopper"
      },
      {
        "value": "CUSTOM:AChickenCrimstonStem"
      },
      {
        "value": "CUSTOM:AChickenDarkOak"
      },
      {
        "value": "CUSTOM:AChickenDiamond"
      },
      {
        "value": "CUSTOM:AChickenDiorite"
      },
      {
        "value": "CUSTOM:AChickenElectrum"
      },
      {
        "value": "CUSTOM:AChickenEmerald"
      },
      {
        "value": "CUSTOM:AChickenEnderEye"
      },
      {
        "value": "CUSTOM:AChickenEnderPearl"
      },
      {
        "value": "CUSTOM:AChickenEndstone"
      },
      {
        "value": "CUSTOM:AChickenFeather"
      },
      {
        "value": "CUSTOM:AChickenFlint"
      },
      {
        "value": "CUSTOM:AChickenghasttear"
      },
      {
        "value": "CUSTOM:AChickenGlass"
      },
      {
        "value": "CUSTOM:AChickenglowberries"
      },
      {
        "value": "CUSTOM:AChickenGlowstone"
      },
      {
        "value": "CUSTOM:AChickenGold"
      },
      {
        "value": "CUSTOM:AChickenGranit"
      },
      {
        "value": "CUSTOM:AChickenGravel"
      },
      {
        "value": "CUSTOM:AChickenHoneycomb"
      },
      {
        "value": "CUSTOM:AChickenInk"
      },
      {
        "value": "CUSTOM:AChickenInvar"
      },
      {
        "value": "CUSTOM:AChickenIridium"
      },
      {
        "value": "CUSTOM:AChickenIron"
      },
      {
        "value": "CUSTOM:AChickenJungleWood"
      },
      {
        "value": "CUSTOM:AChickenLapis"
      },
      {
        "value": "CUSTOM:AChickenLeather"
      },
      {
        "value": "CUSTOM:AChickenmagmacream"
      },
      {
        "value": "CUSTOM:AChickenMekanismBioFuel"
      },
      {
        "value": "CUSTOM:AChickenMekanismBronze"
      },
      {
        "value": "CUSTOM:AChickenMekanismLead"
      },
      {
        "value": "CUSTOM:AChickenMekanismRefinedGlowstone"
      },
      {
        "value": "CUSTOM:AChickenMekanismRefinedObsi"
      },
      {
        "value": "CUSTOM:AChickenMekanismSteel"
      },
      {
        "value": "CUSTOM:AChickenMekanismTin"
      },
      {
        "value": "CUSTOM:AChickenMekanismUranium"
      },
      {
        "value": "CUSTOM:AChickenmelon"
      },
      {
        "value": "CUSTOM:AChickenNautilusShell"
      },
      {
        "value": "CUSTOM:AChickenNetherBrick"
      },
      {
        "value": "CUSTOM:AChickennetherite"
      },
      {
        "value": "CUSTOM:AChickenNetherrack"
      },
      {
        "value": "CUSTOM:AChickenNetherStar"
      },
      {
        "value": "CUSTOM:AChickenNetherWart"
      },
      {
        "value": "CUSTOM:AChickenNickel"
      },
      {
        "value": "CUSTOM:AChickenOakwood"
      },
      {
        "value": "CUSTOM:AChickenObsidian"
      },
      {
        "value": "CUSTOM:AChickenOsmium"
      },
      {
        "value": "CUSTOM:AChickenPaper"
      },
      {
        "value": "CUSTOM:AChickenPlatinum"
      },
      {
        "value": "CUSTOM:AChickenPrismarineShard"
      },
      {
        "value": "CUSTOM:AChickenQuartz"
      },
      {
        "value": "CUSTOM:AChickenRabbitHide"
      },
      {
        "value": "CUSTOM:AChickenRedstone"
      },
      {
        "value": "CUSTOM:AChickenRefinediron"
      },
      {
        "value": "CUSTOM:AChickenrotten"
      },
      {
        "value": "CUSTOM:AChickenSand"
      },
      {
        "value": "CUSTOM:AChickenSilver"
      },
      {
        "value": "CUSTOM:AChickenSlime"
      },
      {
        "value": "CUSTOM:AChickensnow"
      },
      {
        "value": "CUSTOM:AChickenSoulSand"
      },
      {
        "value": "CUSTOM:AChickenSoulSoil"
      },
      {
        "value": "CUSTOM:AChickenspidereye"
      },
      {
        "value": "CUSTOM:AChickensponge"
      },
      {
        "value": "CUSTOM:AChickenSprucewood"
      },
      {
        "value": "CUSTOM:AChickenStone"
      },
      {
        "value": "CUSTOM:AChickenString"
      },
      {
        "value": "CUSTOM:AChickenSugar"
      },
      {
        "value": "CUSTOM:AChickensweetberries"
      },
      {
        "value": "CUSTOM:AChickentintedglass"
      },
      {
        "value": "CUSTOM:AChickenTitanium"
      },
      {
        "value": "CUSTOM:AChickenTNT"
      },
      {
        "value": "CUSTOM:AChickenTungsten"
      },
      {
        "value": "CUSTOM:AChickenTungstensteel"
      },
      {
        "value": "CUSTOM:AChickenUnobtainium"
      },
      {
        "value": "CUSTOM:AChickenVibranium"
      },
      {
        "value": "CUSTOM:AChickenWarpedStem"
      },
      {
        "value": "CUSTOM:AChickenWool"
      },
      {
        "value": "CUSTOM:AChickenYellorium"
      },
      {
        "value": "CUSTOM:AChickenZinc"
      }
    ],
    "name": "roost/livingchicken",
    "namespace": "forge"
  }
}