{
  "_fv": 28,
  "_type": "recipe",
  "definition": {
    "recipeType": "Crafting",
    "xpReward": 0.0,
    "cookingTime": 200,
    "recipeRetstackSize": 1,
    "group": "roost",
    "recipeShapeless": true,
    "recipeSlots": [
      {
        "value": "CUSTOM:Netherstarshard"
      },
      {
        "value": "CUSTOM:Netherstarshard"
      },
      {
        "value": "CUSTOM:Netherstarshard"
      },
      {
        "value": "CUSTOM:Netherstarshard"
      },
      {
        "value": "CUSTOM:Netherstarshard"
      },
      {
        "value": "CUSTOM:Netherstarshard"
      },
      {
        "value": "CUSTOM:Netherstarshard"
      },
      {
        "value": "CUSTOM:Netherstarshard"
      },
      {
        "value": "CUSTOM:Netherstarshard"
      }
    ],
    "recipeReturnStack": {
      "value": "Items.NETHER_STAR"
    },
    "name": "netherstarshardtonetherstar",
    "namespace": "mod"
  }
}