{
  "_fv": 28,
  "_type": "tag",
  "definition": {
    "type": "Items",
    "items": [
      {
        "value": "CUSTOM:EChickenDiamond"
      },
      {
        "value": "CUSTOM:EChickenElectrum"
      },
      {
        "value": "CUSTOM:EChickenInvar"
      },
      {
        "value": "CUSTOM:EChickenNickel"
      },
      {
        "value": "CUSTOM:EChickenTungstensteel"
      },
      {
        "value": "CUSTOM:EChickenBlutonium"
      },
      {
        "value": "CUSTOM:EChickenNetherStar"
      },
      {
        "value": "CUSTOM:EChickenAllthemodium"
      },
      {
        "value": "CUSTOM:EChickenNetherite"
      },
      {
        "value": "CUSTOM:EChickenBotaniaTerrasteel"
      },
      {
        "value": "CUSTOM:EChickenBotaniaElementium"
      }
    ],
    "blocks": [],
    "functions": [],
    "entities": [],
    "name": "roost/tier7",
    "namespace": "forge"
  }
}