{
  "_fv": 28,
  "_type": "tag",
  "definition": {
    "type": "Items",
    "items": [
      {
        "value": "Items.CHORUS_FRUIT"
      }
    ],
    "blocks": [],
    "functions": [],
    "entities": [],
    "name": "roost_getitem_chorusfruit",
    "namespace": "forge"
  }
}